{
  "type": "service_account",
  "project_id": "push-notifications-c0fc0",
  "private_key_id": "5498cc05319941f97621c97a6452e9cccf909cae",
  "private_key": "-----BEGIN PRIVATE KEY-----\nMIIEvAIBADANBgkqhkiG9w0BAQEFAASCBKYwggSiAgEAAoIBAQC1muZSWZ3Kj2o8\n5QZh7jJmCgkg2w6Q0YJy7lhRo5RRQl1MD9fo9sF/akm0DkB6lE04B+wlw6RzfkmK\nIj6xx/cRkrIhNBVRnQx5blrqeno6/4bwe/gAYiOqP9WuJf4rbVrWejIojoZvhm3p\n3ifT7F9Guzu/o0aIt+rr2q0gJysSd+/yb1XfF9oy11FmMDaaQtLtBW7PBzOmoIIL\nT69l0RF8Da/bSw1Sqb7dxai4UOUrmp/RkbweB/JXDzHqtpvjdRlQsShC2mZ1EFLg\nQ6ynobpTd2RIUDUP8gmK1a0HQMlSKM5gPD5yrNgEHUPk30wlBCO1g2TNf7TpnUSQ\nEC03ASd9AgMBAAECggEAJGda5KaYuhZiGDdbvm1Kdohr+IVY5+BLm0DafPECxgA8\n5gamBAnU03cJs7mIpNnOGd2CsbZEZK9ry/Ad67LXPNNQeFXxsRS/f6cGvAqVrnZz\nBQmAtwj1N8dIjPqKNwfahfRkUhtx6PDEXzVce/+dwLa/HST8emMNyT4iZrfbSz3f\nnaJwtcf5/MtNKpYcmdR4w8MeA6wE9+j89qyR281Xbd6sU54aEwfNSEEosoCz+ndX\noyzIbfE8rpJyWMGVy0PJs/qK6BCimgN/b4kVN9noW//Gl6hWkIoUcoclREasBwpc\nJv8I53nJk6ZDy/Ba3CH8v4/ZB6NnNGmS6zEqOCW1QQKBgQDgMizw856mRxJ+NbBv\nL7GsPX4ZS2xQF7+8uzErzO7ap3T53EKnlaHyqU8GMC3fDvps9Z5qAubIkqrgV5Vy\nkBVAJw6Ou2wDXNRnCofPrT4aardYQSp1A9qhCSNIFM62PjCC8WynCItOerbr6y26\nNFY7dOOVH0/KrAT3NPOZyUhWvQKBgQDPXgHHnrAWHaiZc/JNg6eQTt4n7KqO6Oll\nYdxvN3xgsXhQxvxmUgb34MyIW7Cb26Q8ON5vF72R2UJtnydx4wme7nqXVa5gtGSF\nwjo4DMR1hdfrzuQddWEkDFZPRQ9kujyF7LNFCO2g/XNGJ+Iz5y6+uv+CDlDUtOfi\nPiXoJTB/wQKBgBlDbi8EtNb14U6ZjDUrQbEwCLqe9iicVH3W9jaCVFQNVLAnMteh\nk+s9SutemHyvOmb20pANnaXyaRD4rZ2IQOzGuew5kHVci47E8ALl+b6OUfS++yLO\neV92ISSpO5Xrshm/TMgRvWjtiRlSmgeGiEUQ6ehO6/XhpnmY3O5ycRVdAoGATTEl\nYHXF/rWTqWvr6sbzfViegiYrZ390QnUnZY82EZh+vTMVidFHHsbj3G6lU59zh6dz\nxc8ElmJVxBDW0iI91pfXsrYGb6E3OkOPAIZgK49jTTh62ixzuMOO7Xs7u7dICGKQ\naUZljuRKIPd/0OpiEEX0DyndFREysJmJ6tzNLQECgYBqaBEl+8KbeiwduEaa1xZD\n4EplXMMvWe8W9ohANi9zSAeuWis5qdzq8DkQpWxaX8BpSJRfo9RLCy9p6TvtWRL1\nKJ0qxSsXz1VrMiTznuk5wYD6Bm2nzDGTNP0/A8oeypteWKG5orxm9ACpNT6vTsRZ\nP9IK17QEbz6jjybk7ah4Hw==\n-----END PRIVATE KEY-----\n",
  "client_email": "new-service-account-key@push-notifications-c0fc0.iam.gserviceaccount.com",
  "client_id": "116689086559930593380",
  "auth_uri": "https://accounts.google.com/o/oauth2/auth",
  "token_uri": "https://oauth2.googleapis.com/token",
  "auth_provider_x509_cert_url": "https://www.googleapis.com/oauth2/v1/certs",
  "client_x509_cert_url": "https://www.googleapis.com/robot/v1/metadata/x509/new-service-account-key%40push-notifications-c0fc0.iam.gserviceaccount.com"
}
